…
```r
# create a new column that contains the average of that country's emissions 
sample <- carbon_long %>%
  group_by(country) %>%
  mutate(avg_emissions = mean(emissions, na.rm = T))

set.seed(2021)
sample %>% 
  slice_sample(n = 10)
```

```
## # A tibble: 1,920 x 4
## # Groups:   country [192]
##    country      year emissions avg_emissions
##    <chr>       <dbl>     <dbl>         <dbl>
##  1 Afghanistan  1916        NA         2174.
##  2 Afghanistan  1981      1980         2174.
##  3 Afghanistan  1820        NA         2174.
##  4 Afghanistan  1942        NA         2174.
##  5 Afghanistan  2001       818         2174.
##  6 Afghanistan  1852        NA         2174.
##  7 Afghanistan  1860        NA         2174.
##  8 Afghanistan  1853        NA         2174.
##  9 Afghanistan  1855        NA         2174.
## 10 Afghanistan  1773        NA         2174.
## # ... with 1,910 more rows
```
…
